digraph G{

compound=true;
bgcolor=transparent

node [shape=box];

subgraph cluster_communication {
        label = "MPI"
        style = rounded
        color = black
        newmadeleine [color=darkolivegreen1,style=bold,label=<<B>NewMadeleine</B>>]
        }

subgraph cluster_runtime {
        label = "Runtime System"
        style = rounded
        color = black
        starpu [color=chartreuse1,style=bold,label=<<B>StarPU</B>>]
        starpu -> newmadeleine [lhead=cluster_communication]
        }

subgraph cluster_graph {
        label = "Graph Processing"
        style = rounded
        color = black
        scotch [color=darkseagreen1,style=bold,label=<<B>Scotch</B>>]
        }

subgraph cluster_densesolver {
        label = "Dense linear solver"
        style = rounded
        color = black
        chameleon [color=aquamarine, style=bold,label=<<B>Chameleon</B>>]
        chameleon -> starpu [lhead=cluster_runtime]
        }

subgraph cluster_randomizedsolver {
        label = "Randomized E|SVD"
        style = rounded
        color = black
        fmr [color=darkslategray1, style=bold,label=<<B>FMR</B>>]
        fmr -> chameleon [ltail=cluster_randomizedsolver lhead=cluster_densesolver]
        fmr -> starpu [ltail=cluster_randomizedsolver lhead=cluster_runtime]
        }

subgraph cluster_mvasolver {
        label = "Multivariate Analysis"
        style = rounded
        color = black
        diodon[color=lightslateblue,style=bold,label=<<B>Cppdiodon</B>>]
        diodon -> fmr [ltail=cluster_mvasolver lhead=cluster_randomizedsolver]
        diodon -> chameleon [ltail=cluster_mvasolver lhead=cluster_densesolver]
        }

subgraph cluster_sparsedirectsolver {
        label = "Sparse direct solvers"
        style = rounded
        color = black
        qrm [color=cadetblue1, style=bold,label=<<B>qr_mumps</B>>]
        qrm -> starpu [ltail=cluster_sparsedirectsolver lhead=cluster_runtime]
        qrm -> scotch [ltail=cluster_sparsedirectsolver lhead=cluster_graph]
        pastix [color=cadetblue1, style=bold,label=<<B>PaStiX</B>>]
        }

subgraph cluster_iterativesolver {
        label = "Iterative"
        style = rounded
        color = black
        fabulous [color=lightskyblue2, style=bold,label=<<B>Fabulous</B>>]
        fabulous -> chameleon [ltail=cluster_iterativesolver lhead=cluster_densesolver]
        }

subgraph cluster_sparsehybridsolver {
        label = "Sparse hybrid solver   "
        style = rounded
        color = black
        composyx [color=hotpink1,style=bold,label=<<B>Composyx</B>>]
        composyx -> fabulous [ltail=cluster_sparsehybridsolver lhead=cluster_iterativesolver]
        composyx -> pastix [ltail=cluster_sparsehybridsolver lhead=cluster_sparsedirectsolver]
        composyx -> qrm [ltail=cluster_sparsehybridsolver lhead=cluster_sparsedirectsolver]
        }

}